…
## Pivoting wide to long using `tidyr`, 1B


 \footnotesize


```r
relig_income |> 
  pivot_longer(!religion, 
               names_to = "income", 
               values_to = "count")
```

```
## # A tibble: 180 x 3
##    religion income             count
##    <chr>    <chr>              <dbl>
##  1 Agnostic <$10k                 27
##  2 Agnostic $10-20k               34
##  3 Agnostic $20-30k               60
##  4 Agnostic $30-40k               81
##  5 Agnostic $40-50k               76
##  6 Agnostic $50-75k              137
##  7 Agnostic $75-100k             122
##  8 Agnostic $100-150k            109
##  9 Agnostic >150k                 84
## 10 Agnostic Don't know/refused    96
## # i 170 more rows
```
…
## Pivoting wide to long using `tidyr`, 2C


 \footnotesize


```
## # A tibble: 5,307 x 5
##    artist  track                   date.entered week   rank
##    <chr>   <chr>                   <date>       <chr> <dbl>
##  1 2 Pac   Baby Don't Cry (Keep... 2000-02-26   1        87
##  2 2 Pac   Baby Don't Cry (Keep... 2000-02-26   2        82
##  3 2 Pac   Baby Don't Cry (Keep... 2000-02-26   3        72
##  4 2 Pac   Baby Don't Cry (Keep... 2000-02-26   4        77
##  5 2 Pac   Baby Don't Cry (Keep... 2000-02-26   5        87
##  6 2 Pac   Baby Don't Cry (Keep... 2000-02-26   6        94
##  7 2 Pac   Baby Don't Cry (Keep... 2000-02-26   7        99
##  8 2Ge+her The Hardest Part Of ... 2000-09-02   1        91
##  9 2Ge+her The Hardest Part Of ... 2000-09-02   2        87
## 10 2Ge+her The Hardest Part Of ... 2000-09-02   3        92
## # i 5,297 more rows
```
…
## Pivoting wide to long using `tidyr`, 3C


 \footnotesize


```
## # A tibble: 156,128 x 6
##    country      year diagnosis gender age   count
##    <chr>       <dbl> <chr>     <chr>  <chr> <dbl>
##  1 Afghanistan  2001 sp        m      014     129
##  2 Afghanistan  2001 sp        m      1524    379
##  3 Afghanistan  2001 sp        m      2534    349
##  4 Afghanistan  2001 sp        m      3544    274
##  5 Afghanistan  2001 sp        m      4554    204
##  6 Afghanistan  2001 sp        m      5564    139
##  7 Afghanistan  2001 sp        m      65      103
##  8 Afghanistan  2001 sp        f      014     146
##  9 Afghanistan  2001 sp        f      1524    799
## 10 Afghanistan  2001 sp        f      2534    888
## # i 156,118 more rows
```
…
 - In sample predictions are easy to produce
 - Specify `type="expected"` to get probabilities!
- "Binding" it to the data set is helpful for display


 \footnotesize


```r
CarLong %>% bind_cols(Pr=predict(m1,type="expected")) %>% 
  select(id,alt,choice,type,fuel,cost,Pr)
```

```
## # A tibble: 27,924 x 7
##       id   alt choice type    fuel      cost     Pr
##    <int> <int>  <int> <fct>   <fct>    <dbl>  <dbl>
##  1     1     1      1 van     cng          4 0.144 
##  2     1     2      0 regcar  cng          4 0.323 
##  3     1     3      0 van     electric     6 0.186 
##  4     1     4      0 stwagon electric     6 0.0998
##  5     1     5      0 van     gasoline     8 0.136 
##  6     1     6      0 truck   gasoline     8 0.111 
##  7     2     1      0 regcar  methanol     4 0.185 
##  8     2     2      1 van     methanol     4 0.0823
##  9     2     3      0 regcar  cng          8 0.201 
## 10     2     4      0 stwagon cng          8 0.0481
## # i 27,914 more rows
```
…
 \normalsize


 \footnotesize


```
## # A tibble: 27,924 x 2
##     pr_m2  pr_m3
##     <dbl>  <dbl>
##  1 0.138  0.138 
##  2 0.310  0.310 
##  3 0.192  0.192 
##  4 0.103  0.103 
##  5 0.141  0.141 
##  6 0.115  0.115 
##  7 0.191  0.191 
##  8 0.0850 0.0850
##  9 0.204  0.204 
## 10 0.0489 0.0489
## # i 27,914 more rows
```
…
